…
# install.packages("pak")
pak::pak("djnavarro/emaxnls")
```

## Minimal example

``` r

library(tibble)
#> Warning: package 'tibble' was built under R version 4.5.2
library(emaxnls)
set.seed(123)

emax_df
#> # A tibble: 400 × 12
#>       id  dose  exp_1  exp_2 rsp_1 rsp_2 cnt_a cnt_b cnt_c bin_d bin_e cat_f
#>    <int> <dbl>  <dbl>  <dbl> <dbl> <dbl> <dbl> <dbl> <dbl> <dbl> <dbl> <fct>
#>  1     1   200 12332. 13004. 15.7      1  3.85  5.89  4.31     1     1 grp 1
#>  2     2   300 18232. 17244. 15.3      1  4.78  7.25  3.73     1     1 grp 1
#>  3     3     0     0      0   5.65     0  1.22  9.24  2.41     1     1 grp 1
#>  4     4   200  9394.  8839. 12.5      0  2.68  7.14  3.76     1     1 grp 2
#>  5     5   200  7088.  9827. 13.2      1  4.27  5.57  9.05     0     1 grp 2
#>  6     6   300 30402. 28483. 16.8      1  6.09  6.08  4.62     0     1 grp 1
#>  7     7   300 21679. 17137. 17.4      1  7.5   8.1   2.08     0     1 grp 3
#>  8     8   100 15506. 13377. 15.9      0  3.65  6.89  3.56     0     1 grp 1
#>  9     9     0     0      0   7.3      0  4.84  3.77  7.44     0     1 grp 2
#> 10    10   200  5331.  5251. 12.8      1  4.45  3.42  1.66     1     0 grp 3
#> # ℹ 390 more rows
…
covariate_list <- list(
  E0 = c("cnt_a", "cnt_b", "cnt_c", "bin_d", "bin_e"),
  Emax = c("cnt_a", "cnt_b", "cnt_c", "bin_d", "bin_e")
)

final_mod <- base_model |> 
  emax_scm_forward(candidates = covariate_list, threshold = .01) |> 
  emax_scm_backward(candidates = covariate_list, threshold = .001) 

emax_scm_history(final_mod)
#> # A tibble: 22 × 11
#>    iteration attempt step       action term_tested  model_tested model_converged
#>        <int>   <int> <chr>      <chr>  <chr>        <chr>        <lgl>          
#>  1         0       0 base model <NA>   <NA>         E0 ~ 1, Ema… TRUE           
#>  2         1       1 forward    add    E0 ~ cnt_c   E0 ~ 1 + cn… TRUE           
#>  3         1       2 forward    add    Emax ~ bin_e E0 ~ 1, Ema… TRUE           
#>  4         1       3 forward    add    E0 ~ cnt_b   E0 ~ 1 + cn… TRUE           
#>  5         1       4 forward    add    Emax ~ cnt_c E0 ~ 1, Ema… TRUE           
#>  6         1       5 forward    add    Emax ~ cnt_a E0 ~ 1, Ema… TRUE           
#>  7         1       6 forward    add    Emax ~ bin_d E0 ~ 1, Ema… TRUE           
#>  8         1       7 forward    add    E0 ~ cnt_a   E0 ~ 1 + cn… TRUE           
#>  9         1       8 forward    add    Emax ~ cnt_b E0 ~ 1, Ema… TRUE           
#> 10         1       9 forward    add    E0 ~ bin_e   E0 ~ 1 + bi… TRUE           
#> # ℹ 12 more rows
#> # ℹ 4 more variables: term_p_value <dbl>, model_aic <dbl>, model_bic <dbl>,
#> #   model_updated <lgl>
…
## Simulation

``` r

simulate(final_mod, nsim = 1)
#> # A tibble: 400 × 8
#>    dat_id sim_id    mu   val E0_cnt_a E0_Intercept Emax_Intercept
#>     <int>  <int> <dbl> <dbl>    <dbl>        <dbl>          <dbl>
#>  1      1      1 14.5  13.9     0.486         5.01           9.95
#>  2      2      1 15.6  15.5     0.486         5.01           9.95
#>  3      3      1  5.60  6.15    0.486         5.01           9.95
#>  4      4      1 13.4  13.3     0.486         5.01           9.95
#>  5      5      1 13.6  13.0     0.486         5.01           9.95
#>  6      6      1 16.8  16.4     0.486         5.01           9.95
#>  7      7      1 17.1  17.5     0.486         5.01           9.95
#>  8      8      1 14.8  14.6     0.486         5.01           9.95
#>  9      9      1  7.36  6.69    0.486         5.01           9.95
#> 10     10      1 13.0  12.7     0.486         5.01           9.95
#> # ℹ 390 more rows
#> # ℹ 1 more variable: logEC50_Intercept <dbl>
```
…
