…
``` r
# install.packages("pak")
pak::pak("djnavarro/emaxnls")
```

## Minimal example

``` r
library(tibble)
library(emaxnls)
set.seed(123)

emax_df
#> # A tibble: 400 × 10
#>     dose exposure_1 exposure_2 response_1 response_2 cnt_a cnt_b cnt_c bin_d
#>    <dbl>      <dbl>      <dbl>      <dbl>      <dbl> <dbl> <dbl> <dbl> <dbl>
#>  1     0          0          0       6.49          0  3.06  6.50 5.93      0
#>  2     0          0          0       7.81          0  5.72  3.84 5.60      0
#>  3     0          0          0       7.26          0  4.31  3.68 8.16      0
#>  4     0          0          0       7.45          0  4.03  2.86 9.38      1
#>  5     0          0          0       6.33          0  2.46  3.36 8.29      0
#>  6     0          0          0       7.13          0  4.87  8.90 7.06      0
#>  7     0          0          0       6.07          0  2.87  4.85 0.989     0
#>  8     0          0          0       5.47          1  1.07  5.34 3.34      1
#>  9     0          0          0       7.12          0  3.94  5.68 4.01      1
#> 10     0          0          0       8.21          1  7.46  8.16 6.92      1
#> # ℹ 390 more rows
#> # ℹ 1 more variable: bin_e <dbl>
…
covariate_list <- list(
  E0 = c("cnt_a", "cnt_b", "cnt_c", "bin_d", "bin_e"),
  Emax = c("cnt_a", "cnt_b", "cnt_c", "bin_d", "bin_e")
)

final_mod <- base_model |> 
  emax_scm_forward(candidates = covariate_list, threshold = .01) |> 
  emax_scm_backward(candidates = covariate_list, threshold = .001) 

emax_scm_history(final_mod)
#> # A tibble: 32 × 11
#>    iteration attempt step       action term_tested  model_tested model_converged
#>        <int>   <int> <chr>      <chr>  <chr>        <chr>        <lgl>          
#>  1         0       0 base model <NA>   <NA>         E0 ~ 1, Ema… TRUE           
#>  2         1       1 forward    add    E0 ~ cnt_c   E0 ~ 1 + cn… TRUE           
#>  3         1       2 forward    add    Emax ~ bin_e E0 ~ 1, Ema… TRUE           
#>  4         1       3 forward    add    E0 ~ cnt_b   E0 ~ 1 + cn… TRUE           
#>  5         1       4 forward    add    Emax ~ cnt_c E0 ~ 1, Ema… TRUE           
#>  6         1       5 forward    add    Emax ~ cnt_a E0 ~ 1, Ema… TRUE           
#>  7         1       6 forward    add    Emax ~ bin_d E0 ~ 1, Ema… TRUE           
#>  8         1       7 forward    add    E0 ~ cnt_a   E0 ~ 1 + cn… TRUE           
#>  9         1       8 forward    add    Emax ~ cnt_b E0 ~ 1, Ema… TRUE           
#> 10         1       9 forward    add    E0 ~ bin_e   E0 ~ 1 + bi… TRUE           
#> # ℹ 22 more rows
#> # ℹ 4 more variables: term_p_value <dbl>, model_aic <dbl>, model_bic <dbl>,
#> #   model_updated <lgl>
…
