…
# return a vector of predictions
pred <- predict(mod)
pred[1:20]
#>  [1] 14.500646 15.591349  5.647906 13.402470 13.561531 16.851552 17.150410
#>  [8] 14.795187  7.407757 12.975508 18.332700 15.783209  6.809797  6.352819
#> [15] 16.615000 16.302892  5.574984 16.150465 15.843635 14.834422

# return a matrix with confidence intervals
predict(mod, interval = "confidence", se.fit = FALSE)
#> # A tibble: 400 × 3
#>      fit   lwr   upr
#>    <dbl> <dbl> <dbl>
#>  1 14.5  14.4  14.6 
#>  2 15.6  15.5  15.7 
#>  3  5.65  5.52  5.78
#>  4 13.4  13.3  13.5 
#>  5 13.6  13.5  13.6 
#>  6 16.9  16.7  17.0 
#>  7 17.2  17.0  17.3 
#>  8 14.8  14.7  14.9 
#>  9  7.41  7.31  7.51
#> 10 13.0  12.9  13.1 
#> # ℹ 390 more rows
```
