Simulating from Emax models • emaxnls
…
mod <- emax_nls(
  structural_model = rsp_1 ~ exp_1,
  covariate_model = list(E0 ~ cnt_a, Emax ~ 1, logEC50 ~ 1),
  data = emax_df
)

The simulate() method

Calling simulate() generates one or more replicate
datasets. The number of replicates is set by nsim, and a
seed can be supplied for reproducibility:

sim1 <- simulate(mod, nsim = 1, seed = 1)
sim1
#> # A tibble: 400 × 11
#>    dat_id sim_id    mu   val E0_cnt_a E0_Intercept Emax_Intercept
#>     <int>  <int> <dbl> <dbl>    <dbl>        <dbl>          <dbl>
#>  1      1      1 14.4  14.6     0.487         5.10           9.91
#>  2      2      1 15.5  15.1     0.487         5.10           9.91
#>  3      3      1  5.69  5.94    0.487         5.10           9.91
#>  4      4      1 13.3  13.7     0.487         5.10           9.91
#>  5      5      1 13.5  13.8     0.487         5.10           9.91
#>  6      6      1 16.8  16.7     0.487         5.10           9.91
#>  7      7      1 17.1  17.9     0.487         5.10           9.91
#>  8      8      1 14.7  14.9     0.487         5.10           9.91
#>  9      9      1  7.45  7.14    0.487         5.10           9.91
#> 10     10      1 12.9  11.8     0.487         5.10           9.91
#> # ℹ 390 more rows
#> # ℹ 4 more variables: logEC50_Intercept <dbl>, rsp_1 <dbl>, exp_1 <dbl>,
#> #   cnt_a <dbl>
…
